…
With this version you can access player data of every available league on FBREF. Do note that the player data scraping is a little different from the team data scraping and since the player data tables on the site are dynamically rendered, we will use Javascript to scrape the data. To use this function, you will need to have [Mozilla Firefox](https://www.mozilla.org/en-US/firefox/new/) installed on your computer. Note that if you encounter any problems during scraping, use Ctrl + Shift + F10 to restart your R session then use the function again

To scrape the EFL championship passing data for players for the 2022/2023 season for example, you can use this


```R
> # Scrape passing stats for all EFL players in the 2022/2023 season
> efl_passing_players <- fbref_player_stats(season = "2022/2023",
+                                           league = "championship",
+                                           type = "passing")
> 
> # Expected output
> efl_passing_players
# A tibble: 750 × 30
   player           nation  position club       age   birth_year mins_per_90 total_passes_completed total_passes_attempted
   <chr>            <chr>   <chr>    <chr>      <chr> <chr>      <chr>       <chr>                  <chr>                 
 1 Max Aarons       eng ENG DF       Norwich C… 22    2000       42.8        2008                   2536                  
 2 Thelo Aasgaard   no NOR  FW,MF    Wigan Ath… 20    2002       17.6        399                    507                   
 3 Nelson Abbey     eng ENG DF       Reading    18    2003       0.2         6                      9                     
 4 Kelvin Abrefa    eng ENG MF,DF    Reading    18    2003       1.4         20                     36                    
 5 Finlay Adair     eng ENG FW,MF    Preston    17    2005       0.7         3                      8                     
 6 Elijah Adebayo   eng ENG FW       Luton Town 24    1998       35.7        388                    625                   
 7 Toby Adeyemo     eng ENG MF,FW    Watford    17    2005       1.1         9                      15                    
 8 Albert Adomah    gh GHA  FW,MF    QPR        34    1987       14.1        250                    423                   
 9 Michael Adu-Poku eng ENG FW       Watford    16    2005       0.1         0                      1                     
10 Benik Afobe      cd COD  FW       Millwall   29    1993       10.3        127                    192                   
# ℹ 740 more rows
# ℹ 21 more variables: pass_completion_percentage <chr>, total_passing_distance <chr>, total_progressive_distance <chr>,
#   short_passes_completed <chr>, short_passes_attempted <chr>, short_pass_completion_percentage <chr>,
#   medium_passes_completed <chr>, medium_passes_attempted <chr>, medium_pass_completion_percentage <chr>,
#   long_passes_completed <chr>, long_passes_attempted <chr>, long_pass_completion_percentage <chr>, assists <chr>,
#   xAG <chr>, xA <chr>, xag_performance <chr>, key_passes <chr>, passes_into_final_third <chr>,
#   passes_into_penalty_box <chr>, crosses_into_penalty_box <chr>, progressive_passes <chr>
# ℹ Use `print(n = ...)` to see more rows
```
…
